{
    "defaultSeverity": "error",
    "extends": "tslint-config-airbnb",
    "jsRules": {},
    "rules": {
        "eofline": false,
        "quotemark": [
            true,
            "single"
        ],
        "semicolon": [true, "never"]
    },
    "rulesDirectory": []
}
